{
    "bills": [
        {
            "congress": 116,
            "latestAction": {
                "actionDate": "2020-01-03",
                "text": "Read twice and referred to the Committee on Foreign Relations."
            },
            "number": "63",
            "originChamber": "Senate",
            "originChamberCode": "S",
            "title": "A joint resolution to direct the removal of United States Armed Forces from hostilities against the Islamic Republic of Iran that have not been authorized by Congress.",
            "type": "SJRES",
            "updateDate": "2022-02-09",
            "updateDateIncludingText": "2022-02-09T07:32:40Z",
            "url": "https://api.congress.gov/v3/bill/116/sjres/63?format=json"
        },
        {
            "congress": 116,
            "latestAction": {
                "actionDate": "2019-12-17",
                "text": "Placed on Senate Legislative Calendar under General Orders. Calendar No. 335."
            },
            "number": "4",
            "originChamber": "Senate",
            "originChamberCode": "S",
            "title": "A joint resolution requiring the advice and consent of the Senate or an Act of Congress to suspend, terminate, or withdraw the United States from the North Atlantic Treaty and authorizing related litigation, and for other purposes.",
            "type": "SJRES",
            "updateDate": "2022-11-01",
            "updateDateIncludingText": "2022-11-01T14:19:54Z",
            "url": "https://api.congress.gov/v3/bill/116/sjres/4?format=json"
        },
        {
            "congress": 116,
            "latestAction": {
                "actionDate": "2019-12-12",
                "text": "Read twice and referred to the Committee on Commerce, Science, and Transportation."
            },
            "number": "62",
            "originChamber": "Senate",
            "originChamberCode": "S",
            "title": "A joint resolution disapproving the recommendation of the Administrator of the Federal Aviation Administration to realign Binghamton, NY (BGM) TRACON operations and Elmira, NY (ELM) TRACON operations to Wilkes-Barre/Scranton, PA (AVP) TRACON.",
            "type": "SJRES",
            "updateDate": "2022-10-28",
            "updateDateIncludingText": "2022-10-28T01:45:58Z",
            "url": "https://api.congress.gov/v3/bill/116/sjres/62?format=json"
        },
        {
            "congress": 116,
            "latestAction": {
                "actionDate": "2019-12-12",
                "text": "Read twice and referred to the Committee on Veterans' Affairs."
            },
            "number": "61",
            "originChamber": "Senate",
            "originChamberCode": "S",
            "title": "A joint resolution approving the request of the Secretary of Veterans Affairs for a waiver under section 1703E(f) of title 38, United States Code.",
            "type": "SJRES",
            "updateDate": "2022-10-28",
            "updateDateIncludingText": "2022-10-28T01:45:58Z",
            "url": "https://api.congress.gov/v3/bill/116/sjres/61?format=json"
        },
        {
            "congress": 116,
            "latestAction": {
                "actionDate": "2019-11-13",
                "text": "Read twice and referred to the Committee on Foreign Relations."
            },
            "number": "60",
            "originChamber": "Senate",
            "originChamberCode": "S",
            "title": "War Powers Reform Resolution",
            "type": "SJRES",
            "updateDate": "2022-11-01",
            "updateDateIncludingText": "2022-11-01T05:17:28Z",
            "url": "https://api.congress.gov/v3/bill/116/sjres/60?format=json"
        },
        {
            "congress": 116,
            "latestAction": {
                "actionDate": "2019-10-30",
                "text": "Failed of passage in Senate by Yea-Nay Vote. 43 - 52. Record Vote Number: 337."
            },
            "number": "52",
            "originChamber": "Senate",
            "originChamberCode": "S",
            "title": "A joint resolution providing for congressional disapproval under chapter 8 of title 5, United States Code, of the rule submitted by the Secretary of the Treasury and the Secretary of Health and Human Services relating to \"State Relief and Empowerment Waivers\".",
            "type": "SJRES",
            "updateDate": "2022-11-01",
            "updateDateIncludingText": "2022-11-01T13:50:14Z",
            "url": "https://api.congress.gov/v3/bill/116/sjres/52?format=json"
        },
        {
            "congress": 116,
            "latestAction": {
                "actionDate": "2019-10-23",
                "text": "Failed of passage in Senate by Yea-Nay Vote. 43 - 52. Record Vote Number: 331."
            },
            "number": "50",
            "originChamber": "Senate",
            "originChamberCode": "S",
            "title": "A joint resolution providing for congressional disapproval under chapter 8 of title 5, United States Code, of the rule submitted by the Internal Revenue Service, Department of the Treasury, relating to \"Contributions in Exchange for State or Local Tax Credits\".",
            "type": "SJRES",
            "updateDate": "2022-11-01",
            "updateDateIncludingText": "2022-11-01T13:50:37Z",
            "url": "https://api.congress.gov/v3/bill/116/sjres/50?format=json"
        },
        {
            "congress": 116,
            "latestAction": {
                "actionDate": "2019-10-23",
                "text": "Read the second time. Placed on Senate Legislative Calendar under General Orders. Calendar No. 259."
            },
            "number": "59",
            "originChamber": "Senate",
            "originChamberCode": "S",
            "title": "A joint resolution expressing the sense of Congress on the precipitous withdrawal of United States Armed Forces from Syria and Afghanistan, and Turkey's unprovoked incursion into Syria.",
            "type": "SJRES",
            "updateDate": "2022-10-31",
            "updateDateIncludingText": "2022-10-31T19:58:53Z",
            "url": "https://api.congress.gov/v3/bill/116/sjres/59?format=json"
        },
        {
            "congress": 116,
            "latestAction": {
                "actionDate": "2019-10-17",
                "text": "Failed of passage in Senate over veto by Yea-Nay Vote. 53 - 36. Record Vote Number: 325."
            },
            "number": "54",
            "originChamber": "Senate",
            "originChamberCode": "S",
            "title": "A joint resolution relating to a national emergency declared by the President on February 15, 2019.",
            "type": "SJRES",
            "updateDate": "2023-11-17",
            "updateDateIncludingText": "2023-11-17T22:13:46Z",
            "url": "https://api.congress.gov/v3/bill/116/sjres/54?format=json"
        },
        {
            "congress": 116,
            "latestAction": {
                "actionDate": "2019-10-17",
                "text": "Failed of passage in Senate by Yea-Nay Vote. 41 - 53. Record Vote Number: 324."
            },
            "number": "53",
            "originChamber": "Senate",
            "originChamberCode": "S",
            "title": "A joint resolution providing for congressional disapproval under chapter 8 of title 5, United States Code, of the rule submitted by the Environmental Protection Agency relating to \"Repeal of the Clean Power Plan; Emission Guidelines for Greenhouse Gas Emissions From Existing Electric Utility Generating Units; Revisions to Emission Guidelines Implementing Regulations\".",
            "type": "SJRES",
            "updateDate": "2022-11-01",
            "updateDateIncludingText": "2022-11-01T13:50:06Z",
            "url": "https://api.congress.gov/v3/bill/116/sjres/53?format=json"
        },
        {
            "congress": 116,
            "latestAction": {
                "actionDate": "2019-10-17",
                "text": "Read the second time. Placed on Senate Legislative Calendar under General Orders. Calendar No. 245."
            },
            "number": "58",
            "originChamber": "Senate",
            "originChamberCode": "S",
            "title": "A joint resolution expressing support for freedom of conscience.",
            "type": "SJRES",
            "updateDate": "2022-10-31",
            "updateDateIncludingText": "2022-10-31T19:30:50Z",
            "url": "https://api.congress.gov/v3/bill/116/sjres/58?format=json"
        },
        {
            "congress": 116,
            "latestAction": {
                "actionDate": "2019-10-15",
                "text": "Read twice and referred to the Committee on Foreign Relations."
            },
            "number": "57",
            "originChamber": "Senate",
            "originChamberCode": "S",
            "title": "A joint resolution opposing the decision to end certain United States efforts to prevent Turkish military operations against Syrian Kurdish forces in Northeast Syria.",
            "type": "SJRES",
            "updateDate": "2022-11-01",
            "updateDateIncludingText": "2022-11-01T14:31:13Z",
            "url": "https://api.congress.gov/v3/bill/116/sjres/57?format=json"
        },
        {
            "congress": 116,
            "latestAction": {
                "actionDate": "2019-09-24",
                "text": "Read twice and referred to the Committee on the Judiciary."
            },
            "number": "55",
            "originChamber": "Senate",
            "originChamberCode": "S",
            "title": "A joint resolution providing for congressional disapproval under chapter 8 of title 5, United States Code, of the rule submitted by the Acting Secretary of Homeland Security relating to \"Immigrant Investor Program Modernization\"",
            "type": "SJRES",
            "updateDate": "2022-11-01",
            "updateDateIncludingText": "2022-11-01T14:34:05Z",
            "url": "https://api.congress.gov/v3/bill/116/sjres/55?format=json"
        },
        {
            "congress": 116,
            "latestAction": {
                "actionDate": "2019-07-30",
                "text": "Read twice and referred to the Committee on the Judiciary."
            },
            "number": "51",
            "originChamber": "Senate",
            "originChamberCode": "S",
            "title": "A joint resolution proposing an amendment to the Constitution of the United States relating to contributions and expenditures intended to affect elections.",
            "type": "SJRES",
            "updateDate": "2022-11-01",
            "updateDateIncludingText": "2022-11-01T13:50:17Z",
            "url": "https://api.congress.gov/v3/bill/116/sjres/51?format=json"
        },
        {
            "congress": 116,
            "latestAction": {
                "actionDate": "2019-07-29",
                "text": "Failed of passage in Senate over veto by Yea-Nay Vote. 46 - 41. Record Vote Number: 233."
            },
            "number": "38",
            "originChamber": "Senate",
            "originChamberCode": "S",
            "title": "A joint resolution providing for congressional disapproval of the proposed export to the Kingdom of Saudi Arabia and the United Kingdom of Great Britain and Northern Ireland of certain defense articles and services.",
            "type": "SJRES",
            "updateDate": "2023-11-17",
            "updateDateIncludingText": "2023-11-17T22:28:54Z",
            "url": "https://api.congress.gov/v3/bill/116/sjres/38?format=json"
        },
        {
            "congress": 116,
            "latestAction": {
                "actionDate": "2019-07-29",
                "text": "Failed of passage in Senate over veto by Yea-Nay Vote. 45 - 39. Record Vote Number: 232."
            },
            "number": "37",
            "originChamber": "Senate",
            "originChamberCode": "S",
            "title": "A joint resolution providing for congressional disapproval of the proposed export to the United Arab Emirates, the United Kingdom of Great Britain and Northern Ireland, and the Republic of France of certain defense articles and services.",
            "type": "SJRES",
            "updateDate": "2023-11-17",
            "updateDateIncludingText": "2023-11-17T22:28:54Z",
            "url": "https://api.congress.gov/v3/bill/116/sjres/37?format=json"
        },
        {
            "congress": 116,
            "latestAction": {
                "actionDate": "2019-07-29",
                "text": "Failed of passage in Senate over veto by Yea-Nay Vote. 45 - 40. Record Vote Number: 231."
            },
            "number": "36",
            "originChamber": "Senate",
            "originChamberCode": "S",
            "title": "A joint resolution providing for congressional disapproval of the proposed transfer to the Kingdom of Saudi Arabia, the United Kingdom of Great Britain and Northern Ireland, the Kingdom of Spain, and the Italian Republic of certain defense articles and services.",
            "type": "SJRES",
            "updateDate": "2022-11-01",
            "updateDateIncludingText": "2022-11-01T13:51:01Z",
            "url": "https://api.congress.gov/v3/bill/116/sjres/36?format=json"
        },
        {
            "congress": 116,
            "latestAction": {
                "actionDate": "2019-06-20",
                "actionTime": "16:33:27",
                "text": "Held at the desk."
            },
            "number": "48",
            "originChamber": "Senate",
            "originChamberCode": "S",
            "title": "A joint resolution providing for congressional disapproval of the proposed transfer to the United Arab Emirates certain defense articles and services.",
            "type": "SJRES",
            "updateDate": "2023-11-17",
            "updateDateIncludingText": "2023-11-17T22:13:46Z",
            "url": "https://api.congress.gov/v3/bill/116/sjres/48?format=json"
        },
        {
            "congress": 116,
            "latestAction": {
                "actionDate": "2019-06-20",
                "actionTime": "16:33:21",
                "text": "Held at the desk."
            },
            "number": "47",
            "originChamber": "Senate",
            "originChamberCode": "S",
            "title": "A joint resolution providing for congressional disapproval of the proposed transfer to the Kingdom of Saudi Arabia certain defense articles and services.",
            "type": "SJRES",
            "updateDate": "2023-11-17",
            "updateDateIncludingText": "2023-11-17T22:13:46Z",
            "url": "https://api.congress.gov/v3/bill/116/sjres/47?format=json"
        },
        {
            "congress": 116,
            "latestAction": {
                "actionDate": "2019-06-20",
                "actionTime": "16:33:14",
                "text": "Held at the desk."
            },
            "number": "46",
            "originChamber": "Senate",
            "originChamberCode": "S",
            "title": "A joint resolution providing for congressional disapproval of the proposed transfer to the United Arab Emirates certain defense articles and services.",
            "type": "SJRES",
            "updateDate": "2023-11-17",
            "updateDateIncludingText": "2023-11-17T22:13:46Z",
            "url": "https://api.congress.gov/v3/bill/116/sjres/46?format=json"
        }
    ],
    "pagination": {
        "count": 82,
        "next": "https://api.congress.gov/v3/bill/116/sjres?offset=40&limit=20&format=json",
        "prev": "https://api.congress.gov/v3/bill/116/sjres?offset=0&limit=20&format=json"
    },
    "request": {
        "billType": "sjres",
        "congress": "116",
        "contentType": "application/json",
        "format": "json"
    }
}